%YAML 1.1
%TAG !u! tag:unity3d.com,2011:
--- !u!1 &2997780111755833149
GameObject:
  m_ObjectHideFlags: 0
  m_CorrespondingSourceObject: {fileID: 0}
  m_PrefabInstance: {fileID: 0}
  m_PrefabAsset: {fileID: 0}
  serializedVersion: 6
  m_Component:
  - component: {fileID: 4838676927034917017}
  - component: {fileID: 2423879573247220911}
  - component: {fileID: 6744087976199740459}
  m_Layer: 31
  m_Name: Layer1
  m_TagString: Untagged
  m_Icon: {fileID: 0}
  m_NavMeshLayer: 0
  m_StaticEditorFlags: 0
  m_IsActive: 1
--- !u!4 &4838676927034917017
Transform:
  m_ObjectHideFlags: 0
  m_CorrespondingSourceObject: {fileID: 0}
  m_PrefabInstance: {fileID: 0}
  m_PrefabAsset: {fileID: 0}
  m_GameObject: {fileID: 2997780111755833149}
  m_LocalRotation: {x: -0, y: -0, z: -0, w: 1}
  m_LocalPosition: {x: 0, y: 0, z: 0}
  m_LocalScale: {x: 1, y: 1, z: 1}
  m_Children: []
  m_Father: {fileID: 7913072372017419306}
  m_RootOrder: 0
  m_LocalEulerAnglesHint: {x: 0, y: 0, z: 0}
--- !u!1839735485 &2423879573247220911
Tilemap:
  m_ObjectHideFlags: 0
  m_CorrespondingSourceObject: {fileID: 0}
  m_PrefabInstance: {fileID: 0}
  m_PrefabAsset: {fileID: 0}
  m_GameObject: {fileID: 2997780111755833149}
  m_Enabled: 1
  m_Tiles:
  - first: {x: -12, y: -35, z: 0}
    second:
      serializedVersion: 2
      m_TileIndex: 24
      m_TileSpriteIndex: 23
      m_TileMatrixIndex: 0
      m_TileColorIndex: 0
      m_TileObjectToInstantiateIndex: 65535
      m_AllTileFlags: 1073741825
  - first: {x: -9, y: -33, z: 0}
    second:
      serializedVersion: 2
      m_TileIndex: 25
      m_TileSpriteIndex: 24
      m_TileMatrixIndex: 0
      m_TileColorIndex: 0
      m_TileObjectToInstantiateIndex: 65535
      m_AllTileFlags: 1073741825
  - first: {x: -28, y: -30, z: 0}
    second:
      serializedVersion: 2
      m_TileIndex: 21
      m_TileSpriteIndex: 21
      m_TileMatrixIndex: 0
      m_TileColorIndex: 0
      m_TileObjectToInstantiateIndex: 65535
      m_AllTileFlags: 1073741825
  - first: {x: -14, y: -30, z: 0}
    second:
      serializedVersion: 2
      m_TileIndex: 22
      m_TileSpriteIndex: 22
      m_TileMatrixIndex: 0
      m_TileColorIndex: 0
      m_TileObjectToInstantiateIndex: 65535
      m_AllTileFlags: 1073741825
  - first: {x: -16, y: -27, z: 0}
    second:
      serializedVersion: 2
      m_TileIndex: 26
      m_TileSpriteIndex: 24
      m_TileMatrixIndex: 0
      m_TileColorIndex: 0
      m_TileObjectToInstantiateIndex: 65535
      m_AllTileFlags: 1073741825
  - first: {x: -7, y: -27, z: 0}
    second:
      serializedVersion: 2
      m_TileIndex: 23
      m_TileSpriteIndex: 9
      m_TileMatrixIndex: 0
      m_TileColorIndex: 0
      m_TileObjectToInstantiateIndex: 65535
      m_AllTileFlags: 1073741825
  - first: {x: -14, y: -23, z: 0}
    second:
      serializedVersion: 2
      m_TileIndex: 0
      m_TileSpriteIndex: 0
      m_TileMatrixIndex: 0
      m_TileColorIndex: 0
      m_TileObjectToInstantiateIndex: 65535
      m_AllTileFlags: 1073741825
  - first: {x: -18, y: -21, z: 0}
    second:
      serializedVersion: 2
      m_TileIndex: 14
      m_TileSpriteIndex: 14
      m_TileMatrixIndex: 0
      m_TileColorIndex: 0
      m_TileObjectToInstantiateIndex: 65535
      m_AllTileFlags: 1073741825
  - first: {x: -11, y: -20, z: 0}
    second:
      serializedVersion: 2
      m_TileIndex: 3
      m_TileSpriteIndex: 3
      m_TileMatrixIndex: 0
      m_TileColorIndex: 0
      m_TileObjectToInstantiateIndex: 65535
      m_AllTileFlags: 1073741825
  - first: {x: -15, y: -19, z: 0}
    second:
      serializedVersion: 2
      m_TileIndex: 1
      m_TileSpriteIndex: 1
      m_TileMatrixIndex: 0
      m_TileColorIndex: 0
      m_TileObjectToInstantiateIndex: 65535
      m_AllTileFlags: 1073741825
  - first: {x: -21, y: -18, z: 0}
    second:
      serializedVersion: 2
      m_TileIndex: 9
      m_TileSpriteIndex: 25
      m_TileMatrixIndex: 0
      m_TileColorIndex: 0
      m_TileObjectToInstantiateIndex: 65535
      m_AllTileFlags: 1073741825
  - first: {x: -12, y: -17, z: 0}
    second:
      serializedVersion: 2
      m_TileIndex: 15
      m_TileSpriteIndex: 15
      m_TileMatrixIndex: 0
      m_TileColorIndex: 0
      m_TileObjectToInstantiateIndex: 65535
      m_AllTileFlags: 1073741825
  - first: {x: -8, y: -16, z: 0}
    second:
      serializedVersion: 2
      m_TileIndex: 2
      m_TileSpriteIndex: 2
      m_TileMatrixIndex: 0
      m_TileColorIndex: 0
      m_TileObjectToInstantiateIndex: 65535
      m_AllTileFlags: 1073741825
  - first: {x: -16, y: -15, z: 0}
    second:
      serializedVersion: 2
      m_TileIndex: 16
      m_TileSpriteIndex: 16
      m_TileMatrixIndex: 0
      m_TileColorIndex: 0
      m_TileObjectToInstantiateIndex: 65535
      m_AllTileFlags: 1073741825
  - first: {x: -30, y: -14, z: 0}
    second:
      serializedVersion: 2
      m_TileIndex: 20
      m_TileSpriteIndex: 20
      m_TileMatrixIndex: 0
      m_TileColorIndex: 0
      m_TileObjectToInstantiateIndex: 65535
      m_AllTileFlags: 1073741825
  - first: {x: -25, y: -14, z: 0}
    second:
      serializedVersion: 2
      m_TileIndex: 17
      m_TileSpriteIndex: 17
      m_TileMatrixIndex: 0
      m_TileColorIndex: 0
      m_TileObjectToInstantiateIndex: 65535
      m_AllTileFlags: 1073741825
  - first: {x: -13, y: -11, z: 0}
    second:
      serializedVersion: 2
      m_TileIndex: 4
      m_TileSpriteIndex: 4
      m_TileMatrixIndex: 0
      m_TileColorIndex: 0
      m_TileObjectToInstantiateIndex: 65535
      m_AllTileFlags: 1073741825
  - first: {x: -15, y: -9, z: 0}
    second:
      serializedVersion: 2
      m_TileIndex: 7
      m_TileSpriteIndex: 7
      m_TileMatrixIndex: 0
      m_TileColorIndex: 0
      m_TileObjectToInstantiateIndex: 65535
      m_AllTileFlags: 1073741825
  - first: {x: -27, y: -8, z: 0}
    second:
      serializedVersion: 2
      m_TileIndex: 18
      m_TileSpriteIndex: 18
      m_TileMatrixIndex: 0
      m_TileColorIndex: 0
      m_TileObjectToInstantiateIndex: 65535
      m_AllTileFlags: 1073741825
  - first: {x: -24, y: -8, z: 0}
    second:
      serializedVersion: 2
      m_TileIndex: 19
      m_TileSpriteIndex: 19
      m_TileMatrixIndex: 0
      m_TileColorIndex: 0
      m_TileObjectToInstantiateIndex: 65535
      m_AllTileFlags: 1073741825
  - first: {x: -17, y: -8, z: 0}
    second:
      serializedVersion: 2
      m_TileIndex: 8
      m_TileSpriteIndex: 8
      m_TileMatrixIndex: 0
      m_TileColorIndex: 0
      m_TileObjectToInstantiateIndex: 65535
      m_AllTileFlags: 1073741825
  - first: {x: -13, y: -8, z: 0}
    second:
      serializedVersion: 2
      m_TileIndex: 6
      m_TileSpriteIndex: 6
      m_TileMatrixIndex: 0
      m_TileColorIndex: 0
      m_TileObjectToInstantiateIndex: 65535
      m_AllTileFlags: 1073741825
  - first: {x: -17, y: -7, z: 0}
    second:
      serializedVersion: 2
      m_TileIndex: 13
      m_TileSpriteIndex: 13
      m_TileMatrixIndex: 0
      m_TileColorIndex: 0
      m_TileObjectToInstantiateIndex: 65535
      m_AllTileFlags: 1073741825
  - first: {x: -15, y: -7, z: 0}
    second:
      serializedVersion: 2
      m_TileIndex: 5
      m_TileSpriteIndex: 5
      m_TileMatrixIndex: 0
      m_TileColorIndex: 0
      m_TileObjectToInstantiateIndex: 65535
      m_AllTileFlags: 1073741825
  - first: {x: -15, y: -6, z: 0}
    second:
      serializedVersion: 2
      m_TileIndex: 12
      m_TileSpriteIndex: 12
      m_TileMatrixIndex: 0
      m_TileColorIndex: 0
      m_TileObjectToInstantiateIndex: 65535
      m_AllTileFlags: 1073741825
  - first: {x: -13, y: -6, z: 0}
    second:
      serializedVersion: 2
      m_TileIndex: 11
      m_TileSpriteIndex: 11
      m_TileMatrixIndex: 0
      m_TileColorIndex: 0
      m_TileObjectToInstantiateIndex: 65535
      m_AllTileFlags: 1073741825
  - first: {x: -11, y: -6, z: 0}
    second:
      serializedVersion: 2
      m_TileIndex: 10
      m_TileSpriteIndex: 10
      m_TileMatrixIndex: 0
      m_TileColorIndex: 0
      m_TileObjectToInstantiateIndex: 65535
      m_AllTileFlags: 1073741825
  m_AnimatedTiles: {}
  m_TileAssetArray:
  - m_RefCount: 1
    m_Data: {fileID: 11400000, guid: 3f1f418f506ddad4c8e808d54b2dece4, type: 2}
  - m_RefCount: 1
    m_Data: {fileID: 11400000, guid: dc563adb7e66b834fb88b92aa50a68e6, type: 2}
  - m_RefCount: 1
    m_Data: {fileID: 11400000, guid: 3ded6c066b4b1fa4986a59f372dfcda3, type: 2}
  - m_RefCount: 1
    m_Data: {fileID: 11400000, guid: 84430f55443fe9d45a4f3d5993197a3b, type: 2}
  - m_RefCount: 1
    m_Data: {fileID: 11400000, guid: 084682a099ff2ef40993bc560818758b, type: 2}
  - m_RefCount: 1
    m_Data: {fileID: 11400000, guid: d29823b1cf77c1045a56e8afdce91910, type: 2}
  - m_RefCount: 1
    m_Data: {fileID: 11400000, guid: 371e0ef41e2788e4d8a356b73806345b, type: 2}
  - m_RefCount: 1
    m_Data: {fileID: 11400000, guid: 11f8c88280af72e41ac8d49989c02b86, type: 2}
  - m_RefCount: 1
    m_Data: {fileID: 11400000, guid: d42d37cfbfd7e074e87d81ab9b40181c, type: 2}
  - m_RefCount: 1
    m_Data: {fileID: 11400000, guid: 4813162d983a4f945aa9bfa956c3504a, type: 2}
  - m_RefCount: 1
    m_Data: {fileID: 11400000, guid: 945b6a0bcba580647acfd9088df08455, type: 2}
  - m_RefCount: 1
    m_Data: {fileID: 11400000, guid: aa84cf12f4d80704caf6b961225dcc17, type: 2}
  - m_RefCount: 1
    m_Data: {fileID: 11400000, guid: 2d3c3ed1cd99a2c41b53eeb459773a36, type: 2}
  - m_RefCount: 1
    m_Data: {fileID: 11400000, guid: 99584e7edc5f7d645b05df8b5dbe8393, type: 2}
  - m_RefCount: 1
    m_Data: {fileID: 11400000, guid: 459b645bb65af3042a14c1d1fe807253, type: 2}
  - m_RefCount: 1
    m_Data: {fileID: 11400000, guid: 58c7f68e280568f44aa8e69f67287f26, type: 2}
  - m_RefCount: 1
    m_Data: {fileID: 11400000, guid: 2a23a0c191c8e464895bd5d9de04f451, type: 2}
  - m_RefCount: 1
    m_Data: {fileID: 11400000, guid: 4afb1006fecfba44cb627651dbbfa75c, type: 2}
  - m_RefCount: 1
    m_Data: {fileID: 11400000, guid: f2b0aa9019c352a4b8ab0c2e2da50eee, type: 2}
  - m_RefCount: 1
    m_Data: {fileID: 11400000, guid: 384b5ee9735a9e14cbba96f805dbe3fb, type: 2}
  - m_RefCount: 1
    m_Data: {fileID: 11400000, guid: f2b59b566200c5e4aaf8915263885cf1, type: 2}
  - m_RefCount: 1
    m_Data: {fileID: 11400000, guid: 143e1c3c007c2bb438f194bd34e4e5af, type: 2}
  - m_RefCount: 1
    m_Data: {fileID: 11400000, guid: 2c0c79f490eb9a94babeb3d8b00d1017, type: 2}
  - m_RefCount: 1
    m_Data: {fileID: 11400000, guid: bc4736ab67cf11b419095be5bddc2112, type: 2}
  - m_RefCount: 1
    m_Data: {fileID: 11400000, guid: 09992898c515bfc488f6713ced1d01ac, type: 2}
  - m_RefCount: 1
    m_Data: {fileID: 11400000, guid: 216cb1c19d9fae54bac49e4eb577d2f0, type: 2}
  - m_RefCount: 1
    m_Data: {fileID: 11400000, guid: 19191f404c3a4254286cbdba1588c021, type: 2}
  m_TileSpriteArray:
  - m_RefCount: 1
    m_Data: {fileID: 21300000, guid: c7008dc720b624a4e9b9c7d6585cabfe, type: 3}
  - m_RefCount: 1
    m_Data: {fileID: 21300000, guid: bc36516d7f79bf6488898f3daef52219, type: 3}
  - m_RefCount: 1
    m_Data: {fileID: 21300000, guid: 5ad864ad532ff994eab29bdafd11d9ca, type: 3}
  - m_RefCount: 1
    m_Data: {fileID: 21300000, guid: 64a8b96fa1ce0ac4b9ccef67d6282ed8, type: 3}
  - m_RefCount: 1
    m_Data: {fileID: 21300000, guid: 73b58214955ed7742976999eb833e009, type: 3}
  - m_RefCount: 1
    m_Data: {fileID: 21300000, guid: 2ab5ccf023d78594f98948686f421fb5, type: 3}
  - m_RefCount: 1
    m_Data: {fileID: 21300000, guid: 93a3abab156c8564c8ddf59d9b1f016f, type: 3}
  - m_RefCount: 1
    m_Data: {fileID: 21300000, guid: cdb9159c86c18f749923dee3e1d5fb9f, type: 3}
  - m_RefCount: 1
    m_Data: {fileID: 21300000, guid: 44a6419b1e7fc8841b4ba8554c102e18, type: 3}
  - m_RefCount: 1
    m_Data: {fileID: 21300000, guid: 04c5edaf9c5f93d4c8be285d7872dd7d, type: 3}
  - m_RefCount: 1
    m_Data: {fileID: 21300000, guid: bbda505bf9fe13c4c8279493012ca0c0, type: 3}
  - m_RefCount: 1
    m_Data: {fileID: 21300000, guid: 2a0670bdc812240479e16649023f782c, type: 3}
  - m_RefCount: 1
    m_Data: {fileID: 21300000, guid: 0900c897027bf6241b24b63fb9ebeb58, type: 3}
  - m_RefCount: 1
    m_Data: {fileID: 21300000, guid: 32e52988467a169499c8e49ba7ec2351, type: 3}
  - m_RefCount: 1
    m_Data: {fileID: 21300000, guid: 73e33f4e16db958468461620309d199a, type: 3}
  - m_RefCount: 1
    m_Data: {fileID: 21300000, guid: c3c831dc8e511a54dac886424511119e, type: 3}
  - m_RefCount: 1
    m_Data: {fileID: 21300000, guid: 6d3197e08b468064bbbe369a366ec131, type: 3}
  - m_RefCount: 1
    m_Data: {fileID: 21300000, guid: 0a4377aef36f45e4c9cda6d575a8eb53, type: 3}
  - m_RefCount: 1
    m_Data: {fileID: 21300000, guid: ede6b93aa6a193d4d88ae77ac2c031f1, type: 3}
  - m_RefCount: 1
    m_Data: {fileID: 21300000, guid: 62609d6528c3e5b4c9f5af8f6529d21c, type: 3}
  - m_RefCount: 1
    m_Data: {fileID: 21300000, guid: 08ac408873b9e6e42ac8457ee3c86b1d, type: 3}
  - m_RefCount: 1
    m_Data: {fileID: 21300000, guid: 20f814234f5cebf4dbf3edb50a022d4d, type: 3}
  - m_RefCount: 1
    m_Data: {fileID: 21300000, guid: 3f63edf908b0d874e9eb27a97ec150da, type: 3}
  - m_RefCount: 1
    m_Data: {fileID: 21300000, guid: 936acf9481828b246b7273fde4b4b319, type: 3}
  - m_RefCount: 2
    m_Data: {fileID: 21300000, guid: fde6c30b83234f049bd23e247ea25178, type: 3}
  - m_RefCount: 1
    m_Data: {fileID: 21300000, guid: 5397fa7578faf16459ac4a7db093381c, type: 3}
  m_TileMatrixArray:
  - m_RefCount: 27
    m_Data:
      e00: 1
      e01: 0
      e02: 0
      e03: 0
      e10: 0
      e11: 1
      e12: 0
      e13: 0
      e20: 0
      e21: 0
      e22: 1
      e23: 0
      e30: 0
      e31: 0
      e32: 0
      e33: 1
  m_TileColorArray:
  - m_RefCount: 27
    m_Data: {r: 1, g: 1, b: 1, a: 1}
  - m_RefCount: 0
    m_Data: {r: 4.5714264, g: 4.5714264, b: 4.5714264, a: 4.5714264}
  m_TileObjectToInstantiateArray: []
  m_AnimationFrameRate: 1
  m_Color: {r: 1, g: 1, b: 1, a: 1}
  m_Origin: {x: -30, y: -35, z: 0}
  m_Size: {x: 38, y: 52, z: 1}
  m_TileAnchor: {x: 0.5, y: 0.5, z: 0}
  m_TileOrientation: 0
  m_TileOrientationMatrix:
    e00: 1
    e01: 0
    e02: 0
    e03: 0
    e10: 0
    e11: 1
    e12: 0
    e13: 0
    e20: 0
    e21: 0
    e22: 1
    e23: 0
    e30: 0
    e31: 0
    e32: 0
    e33: 1
--- !u!483693784 &6744087976199740459
TilemapRenderer:
  m_ObjectHideFlags: 0
  m_CorrespondingSourceObject: {fileID: 0}
  m_PrefabInstance: {fileID: 0}
  m_PrefabAsset: {fileID: 0}
  m_GameObject: {fileID: 2997780111755833149}
  m_Enabled: 0
  m_CastShadows: 0
  m_ReceiveShadows: 0
  m_DynamicOccludee: 0
  m_MotionVectors: 1
  m_LightProbeUsage: 0
  m_ReflectionProbeUsage: 0
  m_RayTracingMode: 0
  m_RenderingLayerMask: 1
  m_RendererPriority: 0
  m_Materials:
  - {fileID: 2100000, guid: a97c105638bdf8b4a8650670310a4cd3, type: 2}
  m_StaticBatchInfo:
    firstSubMesh: 0
    subMeshCount: 0
  m_StaticBatchRoot: {fileID: 0}
  m_ProbeAnchor: {fileID: 0}
  m_LightProbeVolumeOverride: {fileID: 0}
  m_ScaleInLightmap: 1
  m_ReceiveGI: 1
  m_PreserveUVs: 0
  m_IgnoreNormalsForChartDetection: 0
  m_ImportantGI: 0
  m_StitchLightmapSeams: 1
  m_SelectedEditorRenderState: 0
  m_MinimumChartSize: 4
  m_AutoUVMaxDistance: 0.5
  m_AutoUVMaxAngle: 89
  m_LightmapParameters: {fileID: 0}
  m_SortingLayerID: 0
  m_SortingLayer: 0
  m_SortingOrder: 0
  m_ChunkSize: {x: 32, y: 32, z: 32}
  m_ChunkCullingBounds: {x: 2.06, y: 2.06, z: 0}
  m_MaxChunkCount: 16
  m_MaxFrameAge: 16
  m_SortOrder: 3
  m_Mode: 0
  m_DetectChunkCullingBounds: 0
  m_MaskInteraction: 0
--- !u!1 &5183382966433658292
GameObject:
  m_ObjectHideFlags: 0
  m_CorrespondingSourceObject: {fileID: 0}
  m_PrefabInstance: {fileID: 0}
  m_PrefabAsset: {fileID: 0}
  serializedVersion: 6
  m_Component:
  - component: {fileID: 7913072372017419306}
  - component: {fileID: 1676719636796365801}
  m_Layer: 31
  m_Name: Edificios
  m_TagString: Untagged
  m_Icon: {fileID: 0}
  m_NavMeshLayer: 0
  m_StaticEditorFlags: 0
  m_IsActive: 1
--- !u!4 &7913072372017419306
Transform:
  m_ObjectHideFlags: 0
  m_CorrespondingSourceObject: {fileID: 0}
  m_PrefabInstance: {fileID: 0}
  m_PrefabAsset: {fileID: 0}
  m_GameObject: {fileID: 5183382966433658292}
  m_LocalRotation: {x: 0, y: 0, z: 0, w: 1}
  m_LocalPosition: {x: 0, y: 0, z: 0}
  m_LocalScale: {x: 1, y: 1, z: 1}
  m_Children:
  - {fileID: 4838676927034917017}
  m_Father: {fileID: 0}
  m_RootOrder: 0
  m_LocalEulerAnglesHint: {x: 0, y: 0, z: 0}
--- !u!156049354 &1676719636796365801
Grid:
  m_ObjectHideFlags: 0
  m_CorrespondingSourceObject: {fileID: 0}
  m_PrefabInstance: {fileID: 0}
  m_PrefabAsset: {fileID: 0}
  m_GameObject: {fileID: 5183382966433658292}
  m_Enabled: 1
  m_CellSize: {x: 0.5, y: 0.5, z: 1}
  m_CellGap: {x: 0, y: 0, z: 0}
  m_CellLayout: 3
  m_CellSwizzle: 0
--- !u!114 &-5036139242666765376
MonoBehaviour:
  m_ObjectHideFlags: 0
  m_CorrespondingSourceObject: {fileID: 0}
  m_PrefabInstance: {fileID: 0}
  m_PrefabAsset: {fileID: 0}
  m_GameObject: {fileID: 0}
  m_Enabled: 1
  m_EditorHideFlags: 0
  m_Script: {fileID: 12395, guid: 0000000000000000e000000000000000, type: 0}
  m_Name: Palette Settings
  m_EditorClassIdentifier: 
  cellSizing: 100
