%YAML 1.1
%TAG !u! tag:unity3d.com,2011:
--- !u!114 &11400000
MonoBehaviour:
  m_ObjectHideFlags: 0
  m_CorrespondingSourceObject: {fileID: 0}
  m_PrefabInstance: {fileID: 0}
  m_PrefabAsset: {fileID: 0}
  m_GameObject: {fileID: 0}
  m_Enabled: 1
  m_EditorHideFlags: 0
  m_Script: {fileID: 11500000, guid: d19e3e3d8b3ae254689b9ed423feba9e, type: 3}
  m_Name: EmBanish
  m_EditorClassIdentifier: 
  Name: MultiKills
  imagen: {fileID: 21300000, guid: a9f303e074270e54a843409df4d7072a, type: 3}
  damage: 70
  costeEnergia: 25
