%YAML 1.1
%TAG !u! tag:unity3d.com,2011:
--- !u!114 &11400000
MonoBehaviour:
  m_ObjectHideFlags: 0
  m_CorrespondingSourceObject: {fileID: 0}
  m_PrefabInstance: {fileID: 0}
  m_PrefabAsset: {fileID: 0}
  m_GameObject: {fileID: 0}
  m_Enabled: 1
  m_EditorHideFlags: 0
  m_Script: {fileID: 11500000, guid: d19e3e3d8b3ae254689b9ed423feba9e, type: 3}
  m_Name: Finished
  m_EditorClassIdentifier: 
  Name: Finished
  imagen: {fileID: 21300000, guid: c470270abb68c724cb52c3134dcf81dc, type: 3}
  damage: 105
  costeEnergia: 50
